<?xml version="1.0" encoding="UTF-8"?>
<svg width="33px" height="26px" viewBox="0 0 33 26" version="1.1" xmlns="http://www.w3.org/2000/svg" xmlns:xlink="http://www.w3.org/1999/xlink">
    <!-- Generator: Sketch 51.3 (57544) - http://www.bohemiancoding.com/sketch -->
    <title>testimonio-izq</title>
    <desc>Created with Sketch.</desc>
    <defs></defs>
    <g id="Page-1" stroke="none" stroke-width="1" fill="none" fill-rule="evenodd">
        <g id="Sitio-Otras-Ideas" transform="translate(-246.000000, -3371.000000)" fill="#6F2277">
            <g id="Testimonio" transform="translate(0.000000, 3205.000000)">
                <g id="Group-7" transform="translate(235.000000, 144.000000)">
                    <path d="M23.3,22 L21.1,34.2 L25.1,34.2 L25.1,47.7 L11.6,47.7 L11.6,34 L15.2,22 L23.3,22 Z M42.1,22 L39.9,34.2 L43.9,34.2 L43.9,47.7 L30.4,47.7 L30.4,34 L34,22 L42.1,22 Z" id="testimonio-izq"></path>
                </g>
            </g>
        </g>
    </g>
</svg>